^C:\USERS\ОНТОН\SOURCE\REPOS\HOMEWORK15.4\DEBUG\HOMEWORK15.4.OBJ
C:\USERS\Онтон\SOURCE\REPOS\HOMEWORK15.4\DEBUG\HOMEWORK15.4.EXE
C:\USERS\Онтон\SOURCE\REPOS\HOMEWORK15.4\DEBUG\HOMEWORK15.4.ILK
C:\USERS\ОНТОН\SOURCE\REPOS\HOMEWORK15.4\DEBUG\HOMEWORK15.4.PDB
